\relax 
\citation{achemso-control}
\providecommand{\mciteSetMaxWidth}[3]{\relax}
\providecommand{\mciteSetMaxCount}[3]{\relax}
\bibstyle{achemso}
\citation{Copeland2006DrugResidenceTime}
\citation{Copeland2006DrugResidenceTime}
\citation{Fujitani2005FKBPLigandsFreeEnergy}
\citation{Gumbart2013BindingFreeEnergy}
\citation{Deng2009BindingFreeEnergy}
\citation{Takahashi2014MCLigandDiffusion}
\citation{Fujitani2005FKBPLigandsFreeEnergy,Gumbart2013BindingFreeEnergy,Deng2009BindingFreeEnergy,Takahashi2014MCLigandDiffusion}
\citation{Schuetz2017K4DD}
\citation{Copeland2010ResidenceTime}
\citation{Copeland2016ResidenceTime}
\citation{Schuetz2017K4DD,Copeland2006DrugResidenceTime,Copeland2010ResidenceTime,Copeland2016ResidenceTime}
\citation{Guo2012A2AReceptorResidenceTime}
\citation{Lu2010ResidenceTimeLeadOptimization}
\citation{Lu2009Fab1ResidenceTime}
\citation{Costa2016TSPOLigandResidenceTime}
\citation{Guo2012A2AReceptorResidenceTime,Lu2010ResidenceTimeLeadOptimization,Lu2009Fab1ResidenceTime,Costa2016TSPOLigandResidenceTime}
\citation{Vauquelin2006InVivoLigandDissociation}
\citation{Gabrielsson2009PharmacokineticsLeadCompounds}
\citation{Lee2014EpoxideHydrolaseResidenceTime}
\citation{Lu2010ResidenceTimeLeadOptimization,Vauquelin2006InVivoLigandDissociation,Gabrielsson2009PharmacokineticsLeadCompounds,Lee2014EpoxideHydrolaseResidenceTime}
\providecommand\@newglossary[4]{}
\@newglossary{main}{glg}{gls}{glo}
\newlabel{sec:orgaf7fb51}{{}{1}}
\newlabel{sec:orgcbf0671}{{}{1}}
\citation{Comley2008LabelFreeDetection}
\citation{Comley2008LabelFreeDetection,Schuetz2017K4DD}
\citation{Keighley2011HighThroughputKineticsDrugDiscovery}
\citation{Keighley2011HighThroughputKineticsDrugDiscovery}
\citation{Schuetz2017K4DD}
\citation{Motulsky1984RadioligandCompetitionKineticsPrediction}
\citation{Motulsky1984RadioligandCompetitionKineticsPrediction}
\citation{Shaw2008Anton}
\citation{Shaw2008Anton}
\citation{Li2014InducedFitModelMycobacterium}
\citation{Li2014InducedFitModelMycobacterium}
\citation{Shan2011BindingSiteSimulation}
\citation{Guo2016LigandUnbindingA2A}
\citation{Shan2011BindingSiteSimulation,Guo2016LigandUnbindingA2A}
\citation{Limongelli2013FunnelMetadynamics}
\citation{Casasnovas2017p38FullUnbindingMetadynamics}
\citation{Sun2015KinaseInhibitorBinding}
\citation{Tiwary2017DasatinibUnbinding}
\citation{Limongelli2013FunnelMetadynamics,Casasnovas2017p38FullUnbindingMetadynamics,Sun2015KinaseInhibitorBinding,Tiwary2017DasatinibUnbinding}
\citation{Huang2011UnbindingFreeEnergyLandscape}
\citation{Xu2016StructuralMemoryLigands}
\citation{Dickson2016WExploreLigandRelease}
\citation{Pan2017FKBPAntonUnbinding}
\citation{Huang2011UnbindingFreeEnergyLandscape,Xu2016StructuralMemoryLigands,Dickson2016WExploreLigandRelease,Pan2017FKBPAntonUnbinding,Pan2017FKBPAntonUnbinding}
\citation{Teo2016AdaptiveMultilevelSplitting}
\citation{Buch2011FullInhibitorBinding}
\citation{Plattner2015ConformationalBindingPlasticity}
\citation{Doerr2014OnTheFlySamplingLigandBinding}
\citation{Tiwary2015TrypsinUnbindingPathway}
\citation{Dickson2017TrypsinUnbidingPathways}
\citation{Limongelli2013FunnelMetadynamics,Teo2016AdaptiveMultilevelSplitting,Buch2011FullInhibitorBinding,Plattner2015ConformationalBindingPlasticity,Doerr2014OnTheFlySamplingLigandBinding,Tiwary2015TrypsinUnbindingPathway,Dickson2017TrypsinUnbidingPathways}
\citation{Guillain1970TrypsinBenzamidineUnbindingKinetics}
\citation{Guillain1970TrypsinBenzamidineUnbindingKinetics}
\citation{Shan2011BindingSiteSimulation}
\citation{Tiwary2017DasatinibUnbinding}
\citation{Limongelli2013FunnelMetadynamics,Casasnovas2017p38FullUnbindingMetadynamics}
\citation{Sun2015KinaseInhibitorBinding}
\citation{Tiwary2013Metadynamics}
\citation{Tiwary2013Metadynamics}
\citation{Tiwary2013Metadynamics}
\citation{Tiwary2016SGOOP}
\citation{Tiwary2016SGOOP}
\citation{Abrams2010TAMD}
\citation{Maragliano2006TAMD}
\citation{Abrams2010TAMD,Maragliano2006TAMD}
\citation{Guo2016LigandUnbindingA2A}
\citation{Mollica2016ScaledMDUnbinding}
\citation{Mollica2015ScaledMDUnbinding}
\citation{Mollica2016ScaledMDUnbinding,Mollica2015ScaledMDUnbinding}
\citation{Capelli2014SteeredMD}
\citation{Capelli2014SteeredMD}
\citation{HuberKim1996WeightedEnsemble}
\citation{HuberKim1996WeightedEnsemble}
\citation{Dickson2014WExplore}
\citation{Dickson2014WExplore}
\citation{Dickson2016WExploreLigandRelease}
\citation{Dickson2017TrypsinUnbidingPathways}
\citation{Dickson2017TrypsinUnbidingPathways}
\citation{Lee2014EpoxideHydrolaseResidenceTime}
\citation{Best2012CHARMM36}
\citation{Best2012CHARMM36}
\citation{Vanommeslaeghe2009CGenFF}
\citation{Vanommeslaeghe2009CGenFF}
\citation{Brooks2009CHARMM}
\citation{Brooks2009CHARMM}
\citation{Eastman2013OpenMM4}
\citation{Eastman2013OpenMM4}
\citation{Dickson2014WExplore}
\citation{Dickson2016WExploreLigandRelease,Dickson2017TrypsinUnbidingPathways}
\newlabel{sec:org2f11e0a}{{}{3}}
\newlabel{sec:org87a1608}{{}{3}}
\newlabel{sec:org302f53d}{{}{3}}
\citation{Dickson2017TrypsinUnbidingPathways}
\citation{Dickson2017TrypsinUnbidingPathways}
\citation{Dickson2009NonequilirbiumRateCalculations}
\citation{VandenEijnden2009RateCalculations}
\citation{Zuckerman2017WEReview}
\citation{Hill1989FreeEnergyTransduction}
\citation{Dickson2009NonequilirbiumRateCalculations,VandenEijnden2009RateCalculations,Zuckerman2017WEReview,Hill1989FreeEnergyTransduction}
\newlabel{sec:org03cb9b3}{{}{4}}
\citation{Beauchamp2011MSMBuilder2}
\citation{Beauchamp2011MSMBuilder2}
\citation{Beauchamp2011MSMBuilder2}
\citation{Bastian2009Gephi}
\citation{Bastian2009Gephi}
\citation{Jacomy2014ForceAtlas2}
\citation{Jacomy2014ForceAtlas2}
\citation{Landrum2016RDKit2016_09_4}
\citation{Landrum2016RDKit2016_09_4}
\citation{Hubbard2010HBonds}
\citation{Hubbard2010HBonds}
\citation{salotz2017masticv0.2.1-beta}
\citation{salotz2017masticv0.2.1-beta}
\citation{HoldGeoffroy2014SCOOP}
\citation{HoldGeoffroy2014SCOOP}
\citation{Beauchamp2011MSMBuilder2}
\citation{Weinan2006TransitionPathTheory}
\citation{Metzner2009TPTMarkovJumpProcesses}
\citation{Weinan2006TransitionPathTheory,Metzner2009TPTMarkovJumpProcesses,Beauchamp2011MSMBuilder2}
\citation{Beauchamp2011MSMBuilder2}
\newlabel{sec:org27c2761}{{}{5}}
\newlabel{sec:org20c91a3}{{}{5}}
\newlabel{sec:orga7c4f0a}{{}{5}}
\citation{Chen2012sEHBindingModes}
\citation{Chen2012sEHBindingModes}
\citation{Chen2012sEHBindingModes}
\citation{Lee2017sEHEET}
\citation{Lee2017sEHEET}
\citation{Chen2012sEHBindingModes}
\citation{Chen2012sEHBindingModes}
\citation{Xing2011sEHSBVS}
\citation{Xing2011sEHSBVS,Lee2014EpoxideHydrolaseResidenceTime}
\citation{Shrake1973SASA}
\citation{Shrake1973SASA}
\citation{Shrake1973SASA}
\citation{Rao2004ProteinFoldingNetwork}
\citation{Dickson2014RNAWExplore}
\citation{Salmon2016NMRMolecularModeling}
\citation{Rao2004ProteinFoldingNetwork,Huang2011UnbindingFreeEnergyLandscape,Dickson2017TrypsinUnbidingPathways,Dickson2014RNAWExplore,Salmon2016NMRMolecularModeling}
\citation{Blondel2008NetworkCommunityDetection}
\citation{Blondel2008NetworkCommunityDetection}
\newlabel{sec:org61b0f9e}{{}{6}}
\newlabel{sec:org62912d1}{{}{6}}
\newlabel{sec:org004fc10}{{}{6}}
\newlabel{sec:org5636e34}{{}{6}}
\@writefile{lof}{\contentsline {figure}{\numberline {1}{\ignorespaces  Binding site anatomy of \gls {seh} and structure of TPPU. (A) Surface representation (\SI {1.4}{\angstrom } probe radius) of the binding pocket of \gls {seh} and the TPPU ligand in licorice representation colored by element, from PDB: 4OD0. The \glsfirst {lhs}, the \glsfirst {rhs}, and the \glsfirst {cp} of the binding site are labelled. (B) Identification of some important amino acids along the unbinding path of TPPU. The three residues with hydrogen bonds in PDB: 4OD0 include two in the back of the binding site: Tyr236 (green) and Asp268 (orange); and Tyr153 (blue) in the upper front. Other residues that form hydrogen bonds during dynamics are Gln154 (black), Met189 (yellow), Phe267 (pink), and Val268 (purple). (C) TPPU with the oxygens, nitrogens, piperidyl ring (Pi), and aromatic ring (Ar) labelled. The two R groups (R1 and R2) from the piperidyl-urea scaffold are highlighted in the boxes. All heavy atoms are labelled according to the serial numbers in PDB: 4OD0.\relax }}{7}}
\providecommand*\caption@xref[2]{\@setref\relax\@undefined{#1}}
\newlabel{fig:org5b291a4}{{1}{7}}
\citation{Jacomy2014ForceAtlas2}
\citation{Bastian2009Gephi}
\citation{Jacomy2014ForceAtlas2}
\citation{Bastian2009Gephi}
\citation{Shrake1973SASA}
\citation{Shrake1973SASA}
\@writefile{lof}{\contentsline {figure}{\numberline {2}{\ignorespaces  Cumulative non-equilibrium free energy profiles of A) ligand RMSD to the initial structure after superimposing the protein binding sites and B) ligand \gls {sasa} \mciteCiteA  {\@auxout }{main}{\relax }{\relax }{\cite }{Shrake1973SASA}. Each line consists of values taken from the frames of cycles indicated in the legend, \textit  {i.e.} in increments of \num {300} cycles. Raw weights (\(p\)) were binned and summed across the progress coordinate values (\num {30} bins) within each set of cycles before computing the free energy, \(\text  {FE}_{\text  {bin}} = -ln \DOTSB \sum@ \slimits@ ^{M}_{i}p_{i}\), where \(M\) is the number of observations in a bin.\relax }}{8}}
\newlabel{fig:orgc9780a5}{{2}{8}}
\newlabel{sec:org6996b73}{{}{8}}
\@writefile{lof}{\contentsline {figure}{\numberline {3}{\ignorespaces  A conformation space network shows all poses of TPPU associated to sEH during sampling, including bound, transitioning, and unbound conformations. Each cluster is represented by a node, whose size is proportional to the weight of the cluster. The layout of the nodes and edges was determined using the ForceAtlas2 algorithm \mciteCiteA  {\@auxout }{main}{\relax }{\relax }{\cite }{Jacomy2014ForceAtlas2} in Gephi \mciteCiteA  {\@auxout }{main}{\relax }{\relax }{\cite }{Bastian2009Gephi}. The nodes are colored according to their community: B\(_{\text  {1}}\) (Primary bound ensemble, light green), B\(_{\text  {2}}\) (secondary bound ensemble, cyan), B\(^{\text  {*}}\) (bound branchpoint ensemble, red), P\(_{\text  {1}}\) (primary pathway 1 ensemble, blue), P\(_{\text  {1}}^{\text  {*}}\) (secondary pathway 1 ensemble, purple), P\(_{\text  {2}}\) (pathway 2 ensemble, yellow), and U (near-unbound ensemble, orange). Minor communities detected include B\(_{\text  {3}}\), R\(_{\text  {1}}\), and R\(_{\text  {2}}\) (grey). R\(_{\text  {1}}\) and R\(_{\text  {2}}\) feature ligand poses of reversed orientation relative to the native orientation (see Fig. S3). R\(_{\text  {2}}\) is removed from other CSN depictions for convenience of display.\relax }}{9}}
\newlabel{fig:org827dd14}{{3}{9}}
\@writefile{lof}{\contentsline {figure}{\numberline {4}{\ignorespaces  Density isosurfaces for various network subsets. Two views are shown for each: the front in the left column, and the bottom in the right column. The upper panel shows two views containing density isosurfaces for the transitions state ensemble (TSE; purple), the deeply bound community ensemble (B; green), and the near-bound community ensemble (B\(^{\text  {*}}\); red). The lower panel shows density isosurfaces for the two main exit pathway communities. Path 1 (P1) is shown in blue and Path 2 (P2) is shown in yellow. All surfaces shown at a density of \(\rho = \num {0.2}\).\relax }}{10}}
\newlabel{fig:orgee76680}{{4}{10}}
\citation{Lee2014EpoxideHydrolaseResidenceTime}
\citation{Kotev2016sEHPromiscuousDocking}
\citation{Lee2014EpoxideHydrolaseResidenceTime,Chen2012sEHBindingModes,Kotev2016sEHPromiscuousDocking}
\@writefile{lof}{\contentsline {figure}{\numberline {5}{\ignorespaces  Conformation space networks colored according to A) \glsfirst {sasa} of the TPPU ligand (\si {\angstrom ^2}) calculated with the Shrake-Rupley method \mciteCiteA  {\@auxout }{main}{\relax }{\relax }{\cite }{Shrake1973SASA}, and B) non-equilibrium unbinding ensemble free energy (\(-\text  {ln}(p)\)).\relax }}{11}}
\newlabel{fig:org45d2295}{{5}{11}}
\@writefile{lof}{\contentsline {figure}{\numberline {6}{\ignorespaces  Density isosurfaces of the ligand (TPPU) (left and middle) and conformation space network distributions (right) for specific hydrogen bond acceptor-donor pairs. The interaction labels for each row specify the amino acid type and PDB residue index followed by a hyphen (-) followed by the PDB atom type of the acceptor/donor. The ligand (Lig) PDB atom type acceptor/donor follows the colon (:) (see Fig. 1\hbox {}(C)). The left column shows the front view of the binding site as shown in Fig. 1\hbox {}(A-B). The middle column shows a rotated view of the bottom side of the binding site. The acceptor/donor atom density isosurfaces for the protein are shown in blue and the ligand in red. Two density isosurfaces for distal ligand atoms C16 and C1 are shown in purple and yellow, respectively. The TPPU ligand is shown in licorice representation colored by atom type and the protein backbone is shown as a cartoon in white. Density isosurfaces are calculated from the positions of cluster representatives in which the interaction was detected, and surfaces of density \(\rho = \num {0.025}\) are shown. In the right column nodes in the conformation space network (CSN) are colored blue (as well as adjacent edges) by the presence of the interaction in the cluster representative. Nodes in which the interaction was not observed in the cluster representative are in grey.\relax }}{12}}
\newlabel{fig:org2cfd8a6}{{6}{12}}
\citation{Dickson2017TrypsinUnbidingPathways}
\@writefile{lof}{\contentsline {figure}{\numberline {7}{\ignorespaces  Interaction frequency violin bar graphs for the top 50 highest frequency interactions. Horizontal bars are for individual hydrogen bond acceptor-donor pairs, which are indexed by the vertical axis and sorted by total frequency from the bottom to the top. Violins are shown for each major community as labeled on the horizontal axis, and the color corresponds to those in Fig 3\hbox {}, except for the Transition State Ensemble (TSE) violin which is taken from Fig. 8\hbox {}. The total width of the bar corresponds to the total frequency of the interaction in the community. The gray highlighted rows are, from bottom to top are Tyr153-OH:Lig-O2, Asp105-OD2:Lig-N2, Val268-O:Lig-N1, and Met189-N:Lig-O2, which are detailed in Fig. 6\hbox {} and some others not highlighted are detailed in Fig. S5. Complete results of interaction profiling are given in a file in the SI.\relax }}{13}}
\newlabel{fig:org3ae4b9f}{{7}{13}}
\newlabel{sec:orgb55639a}{{}{13}}
\citation{Singhal2004MSMTransitionProbabilities}
\citation{Singhal2004MSMTransitionProbabilities}
\citation{Schuetz2017K4DD}
\citation{Spagnuolo2017TSDestabilizationDrugDesign}
\citation{Chang2013RationalResidenceTimeFab1}
\citation{Spagnuolo2017TSDestabilizationDrugDesign,Li2014InducedFitModelMycobacterium,Chang2013RationalResidenceTimeFab1}
\newlabel{sec:org461a1ed}{{}{14}}
\newlabel{sec:orgccd64f5}{{}{14}}
\citation{Lee2014EpoxideHydrolaseResidenceTime}
\citation{Dickson2017TrypsinUnbidingPathways}
\@writefile{lof}{\contentsline {figure}{\numberline {8}{\ignorespaces  CSN showing A) forward committor probabilities (probability of unbinding, p\(_{\text  {u}}\)) for each node, and B) the bound and unbound basins used to compute the committor probabilities and the transition state ensemble (TSE) where \(0.4 \leq p_u \leq 0.6\).\relax }}{15}}
\newlabel{fig:org08665d3}{{8}{15}}
\citation{Lee2014EpoxideHydrolaseResidenceTime}
\citation{Lee2014EpoxideHydrolaseResidenceTime}
\citation{Guo2016LigandUnbindingA2A}
\citation{Sun2015KinaseInhibitorBinding}
\citation{Dickson2017TrypsinUnbidingPathways,Tiwary2015TrypsinUnbindingPathway,Plattner2015ConformationalBindingPlasticity}
\citation{Sun2015KinaseInhibitorBinding}
\citation{Butler2005ParallelFolding}
\citation{Butler2005ParallelFolding}
\citation{Tiwary2016SGOOP}
\newlabel{sec:org9ad15e1}{{}{16}}
\@writefile{lof}{\contentsline {figure}{\numberline {9}{\ignorespaces  A) The aggregated probability of unbound states across all WExplore runs. The average aggregated unbound probability of all runs is shown in the black line, with the standard error in light blue as a function of simulation time. The total aggregated weight was \(\num {3.8e-10} \pm \num {3.1e-10}\), and the final residence time was \SI {42}{\second } with standard error ranging from \SIrange {23}{280}{\second }. The aggregated probability in individual runs are shown in grey. No exits were observed for run 2. B) The predicted residence time of the ligand (black with standard error in light blue) vs. the simulation time passed. This is compared to the experimentally measured residence time shown by the red line. C) Violin plots for residence times calculated for each combination of possible subsamples. Run 2 is excluded from the single run rate calculations because it has no exit points and would have an infinite residence time. Residence time is shown on the vertical axis and the number of runs for each sub-sample is shown on the horizontal axis. Individual residence time values are plotted as dots with a small amount of jitter to make them visible. The violin contour is produced using a Gaussian Kernel Density.\relax }}{17}}
\newlabel{fig:org13ad974}{{9}{17}}
\citation{Plattner2015ConformationalBindingPlasticity,Shan2011BindingSiteSimulation}
\newlabel{sec:orgd82c215}{{}{18}}
\bibdata{acs-paper,paper}
\bibcite{Copeland2006DrugResidenceTime}{{1}{2006}{{Copeland \latin {et~al.}}}{{Copeland, Pompliano, and Meek}}}
\bibcite{Fujitani2005FKBPLigandsFreeEnergy}{{2}{2005}{{Fujitani \latin {et~al.}}}{{Fujitani, Tanida, Ito, Jayachandran, Snow, Shirts, Sorin, and Pande}}}
\bibcite{Gumbart2013BindingFreeEnergy}{{3}{2013}{{Gumbart \latin {et~al.}}}{{Gumbart, Roux, and Chipot}}}
\bibcite{Deng2009BindingFreeEnergy}{{4}{2009}{{Deng and Roux}}{{Deng, and Roux}}}
\bibcite{Takahashi2014MCLigandDiffusion}{{5}{2014}{{Takahashi \latin {et~al.}}}{{Takahashi, Gil, and Guallar}}}
\bibcite{Schuetz2017K4DD}{{6}{2017}{{Schuetz \latin {et~al.}}}{{Schuetz, de~Witte, Wong, Knasmueller, Richter, Kokh, Sadiq, Bosma, Nederpelt, Heitman, Segala, Amaral, Guo, Andres, Georgi, Stoddart, Hill, Cooke, Graaf, Leurs, Frech, Wade, de~Lange, IJzerman, Müller-Fahrnow, and Ecker}}}
\bibcite{Copeland2010ResidenceTime}{{7}{2010}{{Copeland}}{{}}}
\bibcite{Copeland2016ResidenceTime}{{8}{2016}{{Copeland}}{{}}}
\bibcite{Guo2012A2AReceptorResidenceTime}{{9}{2012}{{Guo \latin {et~al.}}}{{Guo, Mulder-Krieger, IJzerman, and Heitman}}}
\bibcite{Lu2010ResidenceTimeLeadOptimization}{{10}{2010}{{Lu and Tonge}}{{Lu, and Tonge}}}
\bibcite{Lu2009Fab1ResidenceTime}{{11}{2009}{{Lu \latin {et~al.}}}{{Lu, England, am~Ende, Truglio, Luckner, Reddy, Marlenee, Knudson, Knudson, Bowen, Kisker, Slayden, and Tonge}}}
\bibcite{Costa2016TSPOLigandResidenceTime}{{12}{2016}{{Costa \latin {et~al.}}}{{Costa, Da~Pozzo, Giacomelli, Barresi, Taliani, Da~Settimo, and Martini}}}
\bibcite{Vauquelin2006InVivoLigandDissociation}{{13}{2006}{{Vauquelin and Liefde}}{{Vauquelin, and Liefde}}}
\bibcite{Gabrielsson2009PharmacokineticsLeadCompounds}{{14}{2009}{{Gabrielsson \latin {et~al.}}}{{Gabrielsson, Dolgos, Gillberg, Bredberg, Benthem, and Duker}}}
\bibcite{Lee2014EpoxideHydrolaseResidenceTime}{{15}{2014}{{Lee \latin {et~al.}}}{{Lee, Liu, Wagner, Pakhomova, Dong, Morisseau, Fu, Yang, Wang, Ulu, Mate, Nguyen, Hwang, Edin, Mara, Wulff, Newcomer, Zeldin, and Hammock}}}
\bibcite{Comley2008LabelFreeDetection}{{16}{2008}{{Comley}}{{}}}
\bibcite{Keighley2011HighThroughputKineticsDrugDiscovery}{{17}{2011}{{Keighley}}{{}}}
\bibcite{Motulsky1984RadioligandCompetitionKineticsPrediction}{{18}{1984}{{Motulsky and Mahan}}{{Motulsky, and Mahan}}}
\bibcite{Shaw2008Anton}{{19}{2008}{{Shaw \latin {et~al.}}}{{Shaw, Deneroff, Dror, Kuskin, Larson, Salmon, Young, Batson, Bowers, Chao, Eastwood, Gagliardo, Grossman, Ho, Ierardi, Kolossv\'{a}ry, Klepeis, Layman, McLeavey, Moraes, Mueller, Priest, Shan, Spengler, Theobald, Towles, and Wang}}}
\bibcite{Li2014InducedFitModelMycobacterium}{{20}{2014}{{Li \latin {et~al.}}}{{Li, Lai, Pan, Yu, Liu, Bommineni, Garcia-Diaz, Simmerling, and Tonge}}}
\bibcite{Shan2011BindingSiteSimulation}{{21}{2011}{{Shan \latin {et~al.}}}{{Shan, Kim, Eastwood, Dror, Seeliger, and Shaw}}}
\bibcite{Guo2016LigandUnbindingA2A}{{22}{2016}{{Guo \latin {et~al.}}}{{Guo, Pan, Dror, Mocking, Liu, Heitman, Shaw, and IJzerman}}}
\bibcite{Limongelli2013FunnelMetadynamics}{{23}{2013}{{Limongelli \latin {et~al.}}}{{Limongelli, Bonomi, and Parrinello}}}
\newlabel{sec:org70c38f3}{{}{19}}
\bibcite{Casasnovas2017p38FullUnbindingMetadynamics}{{24}{2017}{{Casasnovas \latin {et~al.}}}{{Casasnovas, Limongelli, Tiwary, Carloni, and Parrinello}}}
\bibcite{Sun2015KinaseInhibitorBinding}{{25}{2015}{{Sun \latin {et~al.}}}{{Sun, Tian, Zhou, Li, Li, Xu, Shen, Pan, and Hou}}}
\bibcite{Tiwary2017DasatinibUnbinding}{{26}{2017}{{Tiwary \latin {et~al.}}}{{Tiwary, Mondal, and Berne}}}
\bibcite{Huang2011UnbindingFreeEnergyLandscape}{{27}{2011}{{Huang and Caflisch}}{{Huang, and Caflisch}}}
\bibcite{Xu2016StructuralMemoryLigands}{{28}{2016}{{Xu \latin {et~al.}}}{{Xu, Caflisch, and Hamm}}}
\bibcite{Dickson2016WExploreLigandRelease}{{29}{2016}{{Dickson and Lotz}}{{Dickson, and Lotz}}}
\bibcite{Pan2017FKBPAntonUnbinding}{{30}{2017}{{Pan \latin {et~al.}}}{{Pan, Xu, Palpant, and Shaw}}}
\bibcite{Teo2016AdaptiveMultilevelSplitting}{{31}{2016}{{Teo \latin {et~al.}}}{{Teo, Mayne, Schulten, and Lelièvre}}}
\bibcite{Buch2011FullInhibitorBinding}{{32}{2011}{{Buch \latin {et~al.}}}{{Buch, Giorgino, and De~Fabritiis}}}
\bibcite{Plattner2015ConformationalBindingPlasticity}{{33}{2015}{{Plattner and Noe}}{{Plattner, and Noe}}}
\bibcite{Doerr2014OnTheFlySamplingLigandBinding}{{34}{2014}{{Doerr and De~Fabritiis}}{{Doerr, and De~Fabritiis}}}
\bibcite{Tiwary2015TrypsinUnbindingPathway}{{35}{2015}{{Tiwary \latin {et~al.}}}{{Tiwary, Limongelli, Salvalaglio, and Parrinello}}}
\bibcite{Dickson2017TrypsinUnbidingPathways}{{36}{2017}{{Dickson and Lotz}}{{Dickson, and Lotz}}}
\bibcite{Guillain1970TrypsinBenzamidineUnbindingKinetics}{{37}{1970}{{Guillain and Thusius}}{{Guillain, and Thusius}}}
\bibcite{Tiwary2013Metadynamics}{{38}{2013}{{Tiwary and Parrinello}}{{Tiwary, and Parrinello}}}
\bibcite{Tiwary2016SGOOP}{{39}{2016}{{Tiwary and Berne}}{{Tiwary, and Berne}}}
\bibcite{Abrams2010TAMD}{{40}{2010}{{Abrams and Vanden-Eijnden}}{{Abrams, and Vanden-Eijnden}}}
\bibcite{Maragliano2006TAMD}{{41}{2006}{{Maragliano and Vanden-Eijnden}}{{Maragliano, and Vanden-Eijnden}}}
\bibcite{Mollica2016ScaledMDUnbinding}{{42}{2016}{{Mollica \latin {et~al.}}}{{Mollica, Theret, Antoine, Perron-Sierra, Charton, Fourquez, Wierzbicki, Boutin, Ferry, Decherchi, Bottegoni, Ducrot, and Cavalli}}}
\bibcite{Mollica2015ScaledMDUnbinding}{{43}{2015}{{Mollica \latin {et~al.}}}{{Mollica, Decherchi, Zia, Gaspari, Cavalli, and Rocchia}}}
\bibcite{Capelli2014SteeredMD}{{44}{2014}{{Capelli and Costantino}}{{Capelli, and Costantino}}}
\bibcite{HuberKim1996WeightedEnsemble}{{45}{1996}{{Huber and Kim}}{{Huber, and Kim}}}
\bibcite{Dickson2014WExplore}{{46}{2014}{{Dickson and Brooks}}{{Dickson, and Brooks}}}
\bibcite{Best2012CHARMM36}{{47}{2012}{{Best \latin {et~al.}}}{{Best, Zhu, Shim, Lopes, Mittal, Feig, and MacKerell}}}
\bibcite{Vanommeslaeghe2009CGenFF}{{48}{2010}{{Vanommeslaeghe \latin {et~al.}}}{{Vanommeslaeghe, Hatcher, Acharya, Kundu, Zhong, Shim, Darian, Guvench, Lopes, Vorobyov, and Mackerell}}}
\bibcite{Brooks2009CHARMM}{{49}{2009}{{Brooks \latin {et~al.}}}{{Brooks, Brooks, Mackerell, Nilsson, Petrella, Roux, Won, Archontis, Bartels, Boresch, Caflisch, Caves, Cui, Dinner, Feig, Fischer, Gao, Hodoscek, Im, Kuczera, Lazaridis, Ma, Ovchinnikov, Paci, Pastor, Post, Pu, Schaefer, Tidor, Venable, Woodcock, Wu, Yang, York, and Karplus}}}
\bibcite{Eastman2013OpenMM4}{{50}{2013}{{Eastman \latin {et~al.}}}{{Eastman, Friedrichs, Chodera, Radmer, Bruns, Ku, Beauchamp, Lane, Wang, Shukla, Tye, Houston, Stich, Klein, Shirts, and Pande}}}
\bibcite{Dickson2009NonequilirbiumRateCalculations}{{51}{2009}{{Dickson \latin {et~al.}}}{{Dickson, Warmflash, and Dinner}}}
\bibcite{VandenEijnden2009RateCalculations}{{52}{2009}{{Vanden-Eijnden and Venturoli}}{{Vanden-Eijnden, and Venturoli}}}
\bibcite{Zuckerman2017WEReview}{{53}{2017}{{Zuckerman and Chong}}{{Zuckerman, and Chong}}}
\bibcite{Hill1989FreeEnergyTransduction}{{54}{1989}{{Hill}}{{}}}
\bibcite{Beauchamp2011MSMBuilder2}{{55}{2011}{{Beauchamp \latin {et~al.}}}{{Beauchamp, Bowman, Lane, Maibaum, Haque, and Pande}}}
\bibcite{Bastian2009Gephi}{{56}{2009}{{Bastian \latin {et~al.}}}{{Bastian, Heymann, and Jacomy}}}
\bibcite{Jacomy2014ForceAtlas2}{{57}{2014}{{Jacomy \latin {et~al.}}}{{Jacomy, Venturini, Heymann, and Bastian}}}
\bibcite{Landrum2016RDKit2016_09_4}{{58}{2016}{{Landrum}}{{}}}
\bibcite{Hubbard2010HBonds}{{59}{2010}{{Hubbard and Haider}}{{Hubbard, and Haider}}}
\bibcite{salotz2017masticv0.2.1-beta}{{60}{2017}{{Lotz}}{{}}}
\bibcite{HoldGeoffroy2014SCOOP}{{61}{2014}{{Hold-Geoffroy \latin {et~al.}}}{{Hold-Geoffroy, Gagnon, and Parizeau}}}
\bibcite{Weinan2006TransitionPathTheory}{{62}{2006}{{E. and Vanden-Eijnden}}{{E., and Vanden-Eijnden}}}
\bibcite{Metzner2009TPTMarkovJumpProcesses}{{63}{2009}{{Metzner \latin {et~al.}}}{{Metzner, Schütte, and Vanden-Eijnden}}}
\bibcite{Chen2012sEHBindingModes}{{64}{2012}{{Chen \latin {et~al.}}}{{Chen, Zhang, Li, and Han}}}
\bibcite{Lee2017sEHEET}{{65}{2017}{{Lee \latin {et~al.}}}{{Lee, Henriksen, Ng, Yang, Jia, Morisseau, Andaya, Gilson, and Hammock}}}
\bibcite{Xing2011sEHSBVS}{{66}{2011}{{Xing \latin {et~al.}}}{{Xing, McDonald, Kolodziej, Kurumbail, Williams, Warren, O’Neal, Skepner, and Roberds}}}
\bibcite{Shrake1973SASA}{{67}{1973}{{Shrake and Rupley}}{{Shrake, and Rupley}}}
\bibcite{Rao2004ProteinFoldingNetwork}{{68}{2004}{{Rao and Caflisch}}{{Rao, and Caflisch}}}
\bibcite{Dickson2014RNAWExplore}{{69}{2014}{{Dickson \latin {et~al.}}}{{Dickson, Mustoe, Salmon, and Brooks~III}}}
\bibcite{Salmon2016NMRMolecularModeling}{{70}{2016}{{Salmon \latin {et~al.}}}{{Salmon, Ahlstrom, Horowitz, Dickson, Brooks, and Bardwell}}}
\bibcite{Blondel2008NetworkCommunityDetection}{{71}{2008}{{Blondel \latin {et~al.}}}{{Blondel, Guillaume, Lambiotte, and Lefebvre}}}
\bibcite{Kotev2016sEHPromiscuousDocking}{{72}{2016}{{Kotev \latin {et~al.}}}{{Kotev, Soliva, and Orozco}}}
\bibcite{Singhal2004MSMTransitionProbabilities}{{73}{2004}{{Singhal \latin {et~al.}}}{{Singhal, Snow, and Pande}}}
\bibcite{Spagnuolo2017TSDestabilizationDrugDesign}{{74}{2017}{{Spagnuolo \latin {et~al.}}}{{Spagnuolo, Eltschkner, Yu, Daryaee, Davoodi, Knudson, Allen, Merino, Pschibul, Moree, Thivalapill, Truglio, Salafsky, Slayden, Kisker, and Tonge}}}
\bibcite{Chang2013RationalResidenceTimeFab1}{{75}{2013}{{Chang \latin {et~al.}}}{{Chang, Schiebel, Yu, Bommineni, Pan, Baxter, Khanna, Sotriffer, Kisker, and Tonge}}}
\bibcite{Butler2005ParallelFolding}{{76}{2005}{{Butler and Loh}}{{Butler, and Loh}}}
\mciteSetMaxCount{main}{bibitem}{76}
\mciteSetMaxCount{main}{subitem}{1}
\mciteSetMaxWidth{main}{bibitem}{770040}
\mciteSetMaxWidth{main}{subitem}{0}
\newlabel{sec:orgefa3ee1}{{}{22}}
