\relax 
\providecommand\hyper@newdestlabel[2]{}
\providecommand\HyperFirstAtBeginDocument{\AtBeginDocument}
\HyperFirstAtBeginDocument{\ifx\hyper@anchor\@undefined
\global\let\oldcontentsline\contentsline
\gdef\contentsline#1#2#3#4{\oldcontentsline{#1}{#2}{#3}}
\global\let\oldnewlabel\newlabel
\gdef\newlabel#1#2{\newlabelxx{#1}#2}
\gdef\newlabelxx#1#2#3#4#5#6{\oldnewlabel{#1}{{#2}{#3}}}
\AtEndDocument{\ifx\hyper@anchor\@undefined
\let\contentsline\oldcontentsline
\let\newlabel\oldnewlabel
\fi}
\fi}
\global\let\hyper@last\relax 
\gdef\HyperFirstAtBeginDocument#1{#1}
\providecommand\HyField@AuxAddToFields[1]{}
\providecommand\HyField@AuxAddToCoFields[2]{}
\providecommand\@newglossary[4]{}
\@newglossary{main}{glg}{gls}{glo}
\@writefile{lof}{\contentsline {figure}{\numberline {S1}{\ignorespaces  The contributions of each individual run to the Conformation State Network (CSN). Nodes (and the connected edges) are colored red for a run in which at least one frame from the run was included in the cluster.}}{1}{figure.1}}
\newlabel{fig:orgb923696}{{S1}{1}{The contributions of each individual run to the Conformation State Network (CSN). Nodes (and the connected edges) are colored red for a run in which at least one frame from the run was included in the cluster}{figure.1}{}}
\@writefile{lof}{\contentsline {figure}{\numberline {S2}{\ignorespaces  Density isosurfaces for selected major communities of the sEH-TPPU network, as well as the transition state ensemble (TSE). Each surface is computed using a single cluster representative for each node in an ensemble. Two density isosurfaces are shown for each: an opaque high density isosurface (\(\rho = \num {0.2}\)) and a translucent low density isosurface (\(\rho = \num {0.03}\)). The viewpoints are the same in all panels and show both the front and bottom views as before. One protein conformation from the ensemble is shown for each in white. The high density regions are the same as those shown in Fig. 3. The colors are roughly the same as those in other figures for ensembles as in the main text.}}{2}{figure.2}}
\newlabel{fig:org3ec9cc8}{{S2}{2}{Density isosurfaces for selected major communities of the sEH-TPPU network, as well as the transition state ensemble (TSE). Each surface is computed using a single cluster representative for each node in an ensemble. Two density isosurfaces are shown for each: an opaque high density isosurface (\(\rho = \num {0.2}\)) and a translucent low density isosurface (\(\rho = \num {0.03}\)). The viewpoints are the same in all panels and show both the front and bottom views as before. One protein conformation from the ensemble is shown for each in white. The high density regions are the same as those shown in Fig. 3. The colors are roughly the same as those in other figures for ensembles as in the main text}{figure.2}{}}
\citation{Shrake1973SASA}
\citation{Shrake1973SASA}
\@writefile{lof}{\contentsline {figure}{\numberline {S3}{\ignorespaces  Example ligand poses for the two reversed orientation communities R\(_{\text  {1}}\) (top) and R\(_{\text  {2}}\) (bottom). The protein is shown in right from the front. Tyr153 (blue), Val268 (purple), and Asp105 (orange) are shown for reference.}}{3}{figure.3}}
\newlabel{fig:orgff62dfb}{{S3}{3}{Example ligand poses for the two reversed orientation communities R\(_{\text {1}}\) (top) and R\(_{\text {2}}\) (bottom). The protein is shown in right from the front. Tyr153 (blue), Val268 (purple), and Asp105 (orange) are shown for reference}{figure.3}{}}
\@writefile{lof}{\contentsline {figure}{\numberline {S4}{\ignorespaces  Plot of the binding site solvent accessible surface area (SASA) (\si {\angstrom ^2}) \cite  {Shrake1973SASA} for every cluster representative in the network over their committor probabilities. The size of the points is equal to the negative of the free energy (\(-\text  {ln}(p)\)) of the cluster translated to the positive domain. The binding site was defined to be all protein atoms which were within \SI {4}{\angstrom } from any ligand atom in the PDB 4OD0 crystal structure. The Shrake-Rupley method was used for calculating SASA. Clusters which were not assigned a committor probability are not included.}}{4}{figure.4}}
\newlabel{fig:org7bd28e5}{{S4}{4}{Plot of the binding site solvent accessible surface area (SASA) (\si {\angstrom ^2}) \cite {Shrake1973SASA} for every cluster representative in the network over their committor probabilities. The size of the points is equal to the negative of the free energy (\(-\text {ln}(p)\)) of the cluster translated to the positive domain. The binding site was defined to be all protein atoms which were within \SI {4}{\angstrom } from any ligand atom in the PDB 4OD0 crystal structure. The Shrake-Rupley method was used for calculating SASA. Clusters which were not assigned a committor probability are not included}{figure.4}{}}
\@writefile{lof}{\contentsline {figure}{\numberline {S5}{\ignorespaces  Density isosurfaces and network distribution of two additional interaction classes: Gln154-NE2:Lig-O2 (top) and Phe267-O:Lig-N2 (bottom). All other details are the same as in Fig. 5 in the main text.}}{5}{figure.5}}
\newlabel{fig:org03dcb4a}{{S5}{5}{Density isosurfaces and network distribution of two additional interaction classes: Gln154-NE2:Lig-O2 (top) and Phe267-O:Lig-N2 (bottom). All other details are the same as in Fig. 5 in the main text}{figure.5}{}}
\@writefile{lof}{\contentsline {figure}{\numberline {S6}{\ignorespaces  The highest flux pathway through the network is shown in red.}}{6}{figure.6}}
\newlabel{fig:org544bb9a}{{S6}{6}{The highest flux pathway through the network is shown in red}{figure.6}{}}
\@writefile{lof}{\contentsline {figure}{\numberline {S7}{\ignorespaces  The top panel shows the CSN with the highest flux pathway colored in red and the bottleneck ensemble of the highest flux path in blue. In the lower panel A) shows the percent forward flux through the CSN accounted for over the inclusion of more bottlenecks, ordered from highest to lowest flux and shows the cumulative percent flux over the bottlenecks.}}{7}{figure.7}}
\newlabel{fig:org8170222}{{S7}{7}{The top panel shows the CSN with the highest flux pathway colored in red and the bottleneck ensemble of the highest flux path in blue. In the lower panel A) shows the percent forward flux through the CSN accounted for over the inclusion of more bottlenecks, ordered from highest to lowest flux and shows the cumulative percent flux over the bottlenecks}{figure.7}{}}
\citation{Lee2014EpoxideHydrolaseResidenceTime}
\citation{Lee2014EpoxideHydrolaseResidenceTime}
\citation{Lee2014EpoxideHydrolaseResidenceTime}
\citation{Lee2014EpoxideHydrolaseResidenceTime}
\@writefile{lof}{\contentsline {figure}{\numberline {S8}{\ignorespaces  Poses of ligands at the exit points colored by run. Ligands are shown relative to the crystal structure in white. This shows a wide variation in geometric positions of the ligands within and among different runs.}}{8}{figure.8}}
\newlabel{fig:org5cb44b2}{{S8}{8}{Poses of ligands at the exit points colored by run. Ligands are shown relative to the crystal structure in white. This shows a wide variation in geometric positions of the ligands within and among different runs}{figure.8}{}}
\@writefile{lof}{\contentsline {figure}{\numberline {S9}{\ignorespaces  Frequency histogram of the exit points binned over their free energies \(-\text  {ln}(p)\).}}{8}{figure.9}}
\newlabel{fig:org1fa1563}{{S9}{8}{Frequency histogram of the exit points binned over their free energies \(-\text {ln}(p)\)}{figure.9}{}}
\citation{Shrake1973SASA}
\citation{Shrake1973SASA}
\@writefile{lof}{\contentsline {figure}{\numberline {S10}{\ignorespaces  Plot of unbinding rates (\(\text  {ln}\nobreakspace  {}k_{\text  {off}}\) (10\(^{\text  {-4}}\) s\(^{\text  {-1}}\))) vs. the inhibition constants (\(\text  {ln}\nobreakspace  {}K_{i}\) (nM)) of inhibitor ligands from Lee \textit  {et al.} \cite  {Lee2014EpoxideHydrolaseResidenceTime} that have the same scaffold (i.e. same non-R2 structure) but different R2 substituents. The structure of the R2 substituents are pictured next to each point. The result of a linear regression is plotted in black and is shown to have a slope of \num {0.472}. For this series the relationship between k\(_{\text  {off}}\) and K\(_{\text  {i}}\) is linear (\(R^2 = \num {0.998}\)), at least for this small sample size. When considering all inhibitors of sEH measured in \cite  {Lee2014EpoxideHydrolaseResidenceTime} this particular series is a much better fit. \(R^2 = \num {0.999}\) for the untransformed data shown in this figure, compared to an \(R^2 = \num {0.44021}\) when considering all measured inhibitors in the same region of values for \(k_{\text  {off}}\) and \(K_{i}\).}}{9}{figure.10}}
\newlabel{fig:org0c03768}{{S10}{9}{Plot of unbinding rates (\(\text {ln}~k_{\text {off}}\) (10\(^{\text {-4}}\) s\(^{\text {-1}}\))) vs. the inhibition constants (\(\text {ln}~K_{i}\) (nM)) of inhibitor ligands from Lee \textit {et al.} \cite {Lee2014EpoxideHydrolaseResidenceTime} that have the same scaffold (i.e. same non-R2 structure) but different R2 substituents. The structure of the R2 substituents are pictured next to each point. The result of a linear regression is plotted in black and is shown to have a slope of \num {0.472}. For this series the relationship between k\(_{\text {off}}\) and K\(_{\text {i}}\) is linear (\(R^2 = \num {0.998}\)), at least for this small sample size. When considering all inhibitors of sEH measured in \cite {Lee2014EpoxideHydrolaseResidenceTime} this particular series is a much better fit. \(R^2 = \num {0.999}\) for the untransformed data shown in this figure, compared to an \(R^2 = \num {0.44021}\) when considering all measured inhibitors in the same region of values for \(k_{\text {off}}\) and \(K_{i}\)}{figure.10}{}}
\@writefile{lof}{\contentsline {figure}{\numberline {S11}{\ignorespaces  Plot of the ligand TPPU solvent accessible surface area (SASA) (\si {\angstrom ^2}) \cite  {Shrake1973SASA} for every cluster representative in the network over their committor probabilities. The size of the points is equal to the negative of the free energy (\(-\text  {ln}(p)\)) of the cluster translated to the positive domain. Clusters which were not assigned a committor probability are not included.}}{10}{figure.11}}
\newlabel{fig:orgd268682}{{S11}{10}{Plot of the ligand TPPU solvent accessible surface area (SASA) (\si {\angstrom ^2}) \cite {Shrake1973SASA} for every cluster representative in the network over their committor probabilities. The size of the points is equal to the negative of the free energy (\(-\text {ln}(p)\)) of the cluster translated to the positive domain. Clusters which were not assigned a committor probability are not included}{figure.11}{}}
\citation{Shrake1973SASA}
\citation{Shrake1973SASA}
\@writefile{lof}{\contentsline {figure}{\numberline {S12}{\ignorespaces  Plot of the distance between an atom from the center of both the top lip of the sEH binding site (Phe151-C\(\alpha \)) and the bottom lip (Phe267-C\(\alpha \)) for every cluster representative in the network over their committor probabilities. The size of the points is equal to the negative of the free energy (\(-\text  {ln}(p)\)) of the cluster translated to the positive domain. Clusters which were not assigned a committor probability are not included.}}{11}{figure.12}}
\newlabel{fig:org0a2c39d}{{S12}{11}{Plot of the distance between an atom from the center of both the top lip of the sEH binding site (Phe151-C\(\alpha \)) and the bottom lip (Phe267-C\(\alpha \)) for every cluster representative in the network over their committor probabilities. The size of the points is equal to the negative of the free energy (\(-\text {ln}(p)\)) of the cluster translated to the positive domain. Clusters which were not assigned a committor probability are not included}{figure.12}{}}
\citation{Shrake1973SASA}
\citation{Shrake1973SASA}
\@writefile{lof}{\contentsline {figure}{\numberline {S13}{\ignorespaces  Plot of solvent accessible surface area (SASA) (\si {\angstrom ^2}) \cite  {Shrake1973SASA} for the atoms in the R2 substituent of the TPPU ligand, for every cluster representative in the network over their committor probabilities. The size of the points is equal to the negative of the free energy (\(-\text  {ln}(p)\)) of the cluster translated to the positive domain. Clusters which were not assigned a committor probability are not included.}}{12}{figure.13}}
\newlabel{fig:org0b924da}{{S13}{12}{Plot of solvent accessible surface area (SASA) (\si {\angstrom ^2}) \cite {Shrake1973SASA} for the atoms in the R2 substituent of the TPPU ligand, for every cluster representative in the network over their committor probabilities. The size of the points is equal to the negative of the free energy (\(-\text {ln}(p)\)) of the cluster translated to the positive domain. Clusters which were not assigned a committor probability are not included}{figure.13}{}}
\@writefile{lof}{\contentsline {figure}{\numberline {S14}{\ignorespaces  Plot of solvent accessible surface area (SASA) (\si {\angstrom ^2}) \cite  {Shrake1973SASA} for all of the atom not in the R2 substituent of the TPPU ligand, for every cluster representative in the network over their committor probabilities. The size of the points is equal to the negative of the free energy (\(-\text  {ln}(p)\)) of the cluster translated to the positive domain. Clusters which were not assigned a committor probability are not included.}}{13}{figure.14}}
\newlabel{fig:org27c9d46}{{S14}{13}{Plot of solvent accessible surface area (SASA) (\si {\angstrom ^2}) \cite {Shrake1973SASA} for all of the atom not in the R2 substituent of the TPPU ligand, for every cluster representative in the network over their committor probabilities. The size of the points is equal to the negative of the free energy (\(-\text {ln}(p)\)) of the cluster translated to the positive domain. Clusters which were not assigned a committor probability are not included}{figure.14}{}}
\@writefile{lof}{\contentsline {figure}{\numberline {S15}{\ignorespaces  Conformation Space Network (CSN) colored according to the solvent accessible surface area (SASA) (\si {\angstrom ^2}) of only the R2 group of the TPPU ligand (top) and only the non-R2 atoms of the TPPU ligand (bottom).}}{14}{figure.15}}
\newlabel{fig:org56ee270}{{S15}{14}{Conformation Space Network (CSN) colored according to the solvent accessible surface area (SASA) (\si {\angstrom ^2}) of only the R2 group of the TPPU ligand (top) and only the non-R2 atoms of the TPPU ligand (bottom)}{figure.15}{}}
\citation{Shrake1973SASA}
\citation{Shrake1973SASA}
\@writefile{lof}{\contentsline {figure}{\numberline {S16}{\ignorespaces  Scatter plot showing the frequency of the 13 intersecting interactions between P\(_{\text  {1}}\) and P\(_{\text  {2}}\) community ensembles. Each point represents a specific acceptor-donor hydrogen bond pair.}}{15}{figure.16}}
\newlabel{fig:org3321c07}{{S16}{15}{Scatter plot showing the frequency of the 13 intersecting interactions between P\(_{\text {1}}\) and P\(_{\text {2}}\) community ensembles. Each point represents a specific acceptor-donor hydrogen bond pair}{figure.16}{}}
\citation{Shrake1973SASA}
\citation{Shrake1973SASA}
\@writefile{lof}{\contentsline {figure}{\numberline {S17}{\ignorespaces  Plot of solvent accessible surface area (SASA) (\si {\angstrom ^2}) \cite  {Shrake1973SASA} for all of the atoms in the R1 substituent of the TPPU ligand, for every cluster representative in the network over their committor probabilities. The size of the points is equal to the negative of the free energy (\(-\text  {ln}(p)\)) of the cluster translated to the positive domain. Clusters which were not assigned a committor probability are not included.}}{16}{figure.17}}
\newlabel{fig:org17fa4e0}{{S17}{16}{Plot of solvent accessible surface area (SASA) (\si {\angstrom ^2}) \cite {Shrake1973SASA} for all of the atoms in the R1 substituent of the TPPU ligand, for every cluster representative in the network over their committor probabilities. The size of the points is equal to the negative of the free energy (\(-\text {ln}(p)\)) of the cluster translated to the positive domain. Clusters which were not assigned a committor probability are not included}{figure.17}{}}
\@writefile{lof}{\contentsline {figure}{\numberline {S18}{\ignorespaces  Plot of solvent accessible surface area (SASA) (\si {\angstrom ^2}) \cite  {Shrake1973SASA} for all of the atom not in the R2 substituent nor in the R1 substituent (i.e. scaffold) of the TPPU ligand, for every cluster representative in the network over their committor probabilities. The size of the points is equal to the negative of the free energy (\(-\text  {ln}(p)\)) of the cluster translated to the positive domain. Clusters which were not assigned a committor probability are not included.}}{17}{figure.18}}
\newlabel{fig:org8ab0b70}{{S18}{17}{Plot of solvent accessible surface area (SASA) (\si {\angstrom ^2}) \cite {Shrake1973SASA} for all of the atom not in the R2 substituent nor in the R1 substituent (i.e. scaffold) of the TPPU ligand, for every cluster representative in the network over their committor probabilities. The size of the points is equal to the negative of the free energy (\(-\text {ln}(p)\)) of the cluster translated to the positive domain. Clusters which were not assigned a committor probability are not included}{figure.18}{}}
\@writefile{lot}{\contentsline {table}{\numberline {S1}{\ignorespaces Table of statistics of exit point weights in each run they were observed.}}{17}{table.1}}
\newlabel{tab:exit-point_stats}{{S1}{17}{Table of statistics of exit point weights in each run they were observed}{table.1}{}}
\bibstyle{unsrt}
\bibdata{paper}
\bibcite{Shrake1973SASA}{1}
\bibcite{Lee2014EpoxideHydrolaseResidenceTime}{2}
